An R Markdown document converted from “C:/Users/Dis/Downloads/anagramm.ipynb”
…
responses$dropout_1 <- responses$`Отсев 1 этап`
responses$dropout_2 <- responses$`Отсев 2 этап`
responses$prob_counter <- responses$`Номер_пробы_(этап_1)...2` %>% as.numeric()
print(responses)

## # A tibble: 10,065 × 23
##       ID `Номер_пробы_(этап_1)...2` `Ответ_(этап_1)` `Комментарии_(этап_1)`
##    <dbl>                      <dbl> <chr>            <chr>                 
##  1     1                          1 <NA>             <NA>                  
##  2     1                          2 <NA>             <NA>                  
##  3     1                          3 <NA>             <NA>                  
##  4     1                          4 <NA>             <NA>                  
##  5     1                          5 <NA>             <NA>                  
##  6     1                          6 <NA>             <NA>                  
##  7     1                          7 <NA>             <NA>                  
##  8     1                          8 <NA>             <NA>                  
##  9     1                          9 <NA>             <NA>                  
## 10     1                         10 <NA>             <NA>                  
## # ℹ 10,055 more rows
## # ℹ 19 more variables: `Блок_(этап_1)` <dbl>, `Номер_пробы_(этап_1)...6` <dbl>,
## #   `Ответ_(этап_2)` <chr>, `Версии_(этап_2)` <chr>, `Блок_(этап_2)` <dbl>,
## #   `Комментарии_(этап_2)` <chr>, `Количество нет 1-1` <dbl>,
## #   `Количество нет 1-2` <dbl>, `Количество нет 1-3` <dbl>,
## #   `Количество нет 2-1` <dbl>, `Количество нет 2-2` <dbl>,
## #   `Количество нет 2-3` <dbl>, `Процент количества нет_1` <dbl>, …
…
subject_ifno$sex <- subject_ifno$Пол %>% as.factor()
subject_ifno$date <- subject_ifno$`Дата проведения`
subject_ifno$list <- subject_ifno$`Лист на 1-ом этапе`
subject_ifno$sequence <- subject_ifno$Последовательность
subject_ifno$group <- subject_ifno$Группа
subject_ifno$researcher <- subject_ifno$Экспериментатор
subject_ifno$coomment <- subject_ifno$Комментарии
subject_ifno$exclude <- subject_ifno$Исключение
subject_ifno$strategy <- subject_ifno$Стратегия
subject_ifno$suppression_of_a_tip <- subject_ifno$`Использование / подавление наводки`
subject_ifno[is.na(subject_ifno$exclude),]$exclude <- 0
subject_ifno <- subject_ifno %>% select(ID, age, sex, date, list, sequence, group, researcher, coomment, exclude, strategy, suppression_of_a_tip)
print(subject_ifno)

## # A tibble: 130 × 12
##       ID   age sex   date        list sequence group researcher coomment exclude
##    <dbl> <dbl> <fct> <chr>      <dbl>    <dbl> <chr> <chr>      <chr>      <dbl>
##  1     1    29 ж     16.08.2024    NA      123 конт… Илья       Сообщил…       0
##  2     2    23 ж     20.08.2024    NA      132 конт… Илья       <NA>           0
##  3     3    40 ж     20.08.2024    NA      213 конт… Илья       <NA>           0
##  4     4    23 ж     20.08.2024    NA      231 конт… Илья       Уставша…       1
##  5     5    22 ж     23.08.2024    NA      312 конт… Илья       <NA>           0
##  6     6    31 ж     25.08.2024    NA      321 конт… Илья       Из Ново…       0
##  7     7    24 м     10.09.2024    NA      123 конт… Илья       Гипреве…       1
##  8     8    20 ж     13.09.2024    NA      132 конт… Илья       Самодиа…       1
##  9     9    23 м     17.09.2024     1      123 эксп  Диана      <NA>           0
## 10    10    30 ж     18.09.2024     2      132 эксп  Костя      На 1 эт…       0
## # ℹ 120 more rows
## # ℹ 2 more variables: strategy <chr>, suppression_of_a_tip <chr>
…
