Науменко, репликация
…
Верные / Неверные ответы онлайн

data_mn_5 <- data %>% 
  group_by(id, prime_type, tg_type, is_online) %>% 
  mutate(group) %>% 
  summarise(mean_rt = mean(rt))

## `summarise()` has grouped output by 'id', 'prime_type', 'tg_type'. You can
## override using the `.groups` argument.

data_mn_5

## # A tibble: 232 × 5
## # Groups:   id, prime_type, tg_type [232]
##       id prime_type tg_type is_online mean_rt
##    <dbl> <fct>      <fct>       <dbl>   <dbl>
##  1     1 1          1               1    921.
##  2     1 1          2               1    792.
##  3     1 2          1               1    914.
##  4     1 2          2               1    744.
##  5     2 1          1               1   2009.
##  6     2 1          2               1   1355.
##  7     2 2          1               1   1739.
##  8     2 2          2               1   1456.
##  9     3 1          1               1   1950.
## 10     3 1          2               1   1602.
## # ℹ 222 more rows
…
