An R Markdown document converted from “C:/Users/Dis/Downloads/anagramm.ipynb”
…
responses$dropout_1 <- responses$`Отсев 1 этап`
responses$dropout_2 <- responses$`Отсев 2 этап`
responses$prob_counter <- responses$`Номер_пробы_(этап_1)...2` %>% as.numeric()
print(responses)

## # A tibble: 9,207 × 23
##       ID `Номер_пробы_(этап_1)...2` `Ответ_(этап_1)` `Комментарии_(этап_1)`
##    <dbl>                      <dbl> <chr>            <chr>                 
##  1     1                          1 <NA>             <NA>                  
##  2     1                          2 <NA>             <NA>                  
##  3     1                          3 <NA>             <NA>                  
##  4     1                          4 <NA>             <NA>                  
##  5     1                          5 <NA>             <NA>                  
##  6     1                          6 <NA>             <NA>                  
##  7     1                          7 <NA>             <NA>                  
##  8     1                          8 <NA>             <NA>                  
##  9     1                          9 <NA>             <NA>                  
## 10     1                         10 <NA>             <NA>                  
## # ℹ 9,197 more rows
## # ℹ 19 more variables: `Блок_(этап_1)` <dbl>, `Номер_пробы_(этап_1)...6` <dbl>,
## #   `Ответ_(этап_2)` <chr>, `Версии_(этап_2)` <chr>, `Блок_(этап_2)` <dbl>,
## #   `Комментарии_(этап_2)` <chr>, `Количество нет 1-1` <dbl>,
## #   `Количество нет 1-2` <dbl>, `Количество нет 1-3` <dbl>,
## #   `Количество нет 2-1` <dbl>, `Количество нет 2-2` <dbl>,
## #   `Количество нет 2-3` <dbl>, `Процент количества нет_1` <dbl>, …
…
subject_ifno$age <- subject_ifno$Возраст
subject_ifno$date <- subject_ifno$`Дата проведения`
subject_ifno$list <- subject_ifno$`Лист на 1-ом этапе`
subject_ifno$sequence <- subject_ifno$Последовательность
subject_ifno$group <- subject_ifno$Группа
subject_ifno$researcher <- subject_ifno$Экспериментатор
subject_ifno$coomment <- subject_ifno$Комментарии
subject_ifno$exclude <- subject_ifno$Исключение
subject_ifno$strategy <- subject_ifno$Стратегия
subject_ifno$suppression_of_a_tip <- subject_ifno$`Использование / подавление наводки`
subject_ifno[is.na(subject_ifno$exclude),]$exclude <- 0
subject_ifno <- subject_ifno %>% select(ID, age, date, list, sequence, group, researcher, coomment, exclude, strategy, suppression_of_a_tip)
print(subject_ifno)

## # A tibble: 117 × 11
##       ID   age date     list sequence group researcher coomment exclude strategy
##    <dbl> <dbl> <chr>   <dbl>    <dbl> <chr> <chr>      <chr>      <dbl> <chr>   
##  1     1    29 16.08.…    NA      123 конт… Илья       Сообщил…       0 <NA>    
##  2     2    23 20.08.…    NA      132 конт… Илья       <NA>           0 <NA>    
##  3     3    40 20.08.…    NA      213 конт… Илья       <NA>           0 <NA>    
##  4     4    23 20.08.…    NA      231 конт… Илья       Уставша…       1 <NA>    
##  5     5    22 23.08.…    NA      312 конт… Илья       <NA>           0 <NA>    
##  6     6    31 25.08.…    NA      321 конт… Илья       Из Ново…       0 <NA>    
##  7     7    24 10.09.…    NA      123 конт… Илья       Гипреве…       1 <NA>    
##  8     8    20 13.09.…    NA      132 конт… Илья       Самодиа…       1 <NA>    
##  9     9    23 17.09.…     1      123 эксп  Диана      <NA>           0 не смот…
## 10    10    30 18.09.…     2      132 эксп  Костя      На 1 эт…       0 <NA>    
## # ℹ 107 more rows
## # ℹ 1 more variable: suppression_of_a_tip <chr>
…
# вычисляем процент ага среди правильных ответов для каждого человека
full_data %>%
  filter(group.x == "эксп" & dropout_2h == 0) %>%
  group_by(ID, Condition) %>%
  summarise(aha = sum(Q1Aha.RESP[Q1Aha.RESP ==  1]),
            all = sum(Accuracy)) %>%
  ungroup() -> part_1_aha

## `summarise()` has grouped output by 'ID'. You can override using the `.groups`
## argument.

part_1_aha$aha_per <-part_1_aha$aha / part_1_aha$all
print(part_1_aha)

## # A tibble: 92 × 5
##    ID    Condition   aha   all aha_per
##    <fct> <chr>     <dbl> <dbl>   <dbl>
##  1 9     1            15    20   0.75 
##  2 9     2            16    23   0.696
##  3 10    1            19    23   0.826
##  4 10    2            22    30   0.733
##  5 11    1             6    19   0.316
##  6 11    2             3    15   0.2  
##  7 12    1            19    28   0.679
##  8 12    2            16    37   0.432
##  9 13    1             7    20   0.35 
## 10 13    2            12    22   0.545
## # ℹ 82 more rows
…
h3_data <- full_data %>% filter(group.x == "эксп" & dropout_3h == 0)

h3_data %>%
  group_by(ID, Q1Aha.RESP) %>%
  summarize(RT = mean(Target.RT2)) -> h3_data_mean

## `summarise()` has grouped output by 'ID'. You can override using the `.groups`
## argument.

h3_data_mean %>%
  group_by(ID) %>%
  summarize(shap_test_rt = RT[Q1Aha.RESP == 1] - RT[Q1Aha.RESP == 2])

## # A tibble: 45 × 2
##    ID    shap_test_rt
##    <fct>        <dbl>
##  1 9           -1148.
##  2 10           2449.
##  3 11           2143.
##  4 12           -533.
##  5 13            307.
##  6 17           -629.
##  7 22            816.
##  8 24          -2685.
##  9 26            737.
## 10 29          -2967.
## # ℹ 35 more rows
…
